"variable";"type";"short_label";"long_label"
"CODGEO";"quanti_cont";"Code département";"Code département"
"NBMENFISC17";"quanti_cont";"NBMENFISC17";"NBMENFISC17"
"NBPERSMENFISC17";"quanti_cont";"NBPERSMENFISC17";"NBPERSMENFISC17"
"MED17";"quanti_cont";"MED17";"MED17"
"PIMP17";"quanti_cont";"PIMP17";"PIMP17"
"TP6017";"quanti_cont";"TP6017";"TP6017"
"TP60AGE117";"quanti_cont";"TP60AGE117";"TP60AGE117"
"TP60AGE217";"quanti_cont";"TP60AGE217";"TP60AGE217"
"TP60AGE317";"quanti_cont";"TP60AGE317";"TP60AGE317"
"TP60AGE417";"quanti_cont";"TP60AGE417";"TP60AGE417"
"TP60AGE517";"quanti_cont";"TP60AGE517";"TP60AGE517"
"TP60AGE617";"quanti_cont";"TP60AGE617";"TP60AGE617"
"TP60TOL117";"quanti_cont";"TP60TOL117";"TP60TOL117"
"TP60TOL217";"quanti_cont";"TP60TOL217";"TP60TOL217"
"PACT17";"quanti_cont";"PACT17";"PACT17"
"PTSA17";"quanti_cont";"PTSA17";"PTSA17"
"PCHO17";"quanti_cont";"PCHO17";"PCHO17"
"PBEN17";"quanti_cont";"PBEN17";"PBEN17"
"PPEN17";"quanti_cont";"PPEN17";"PPEN17"
"PPAT17";"quanti_cont";"PPAT17";"PPAT17"
"PPSOC17";"quanti_cont";"PPSOC17";"PPSOC17"
"PPFAM17";"quanti_cont";"PPFAM17";"PPFAM17"
"PPMINI17";"quanti_cont";"PPMINI17";"PPMINI17"
"PPLOGT17";"quanti_cont";"PPLOGT17";"PPLOGT17"
"PIMPOT17";"quanti_cont";"PIMPOT17";"PIMPOT17"
"D117";"quanti_cont";"D117";"D117"
"D917";"quanti_cont";"D917";"D917"
"RD17";"quanti_cont";"RD17";"RD17"
